MSVtx_barrel_hits_dr_mean_MSTracklet,MSVtx_barrel_hits_dr_mean_MSeg,MSVtx_barrel_hits_dr_rms_MSTracklet,MSVtx_barrel_hits_dr_rms_MSeg,MSVtx_barrel_hits_g5track_drmin,MSVtx_barrel_hits_g5track_ptsum_opposite,MSVtx_barrel_hits_met_dphi,MSVtx_barrel_hits_vec_jet_drmin,MSVtx_barrel_hits_vec_jet_nmdt,MSVtx_barrel_hits_vec_jet_nrpc,MSVtx_barrel_hits_vec_jet_pt,bdt_target,bdt_sample_type,h_mass,s_mass
0.5165309410643194,0.3574750503577402,0.6358872450635926,0.40017872810674665,0.5525682969582715,5.234646867657949,0.9976629594766817,0.6886007631739084,1165.0,1880.0,15.9046181640625,1,20,125,55
0.23919378543683836,0.3292926962852227,0.3856302838150388,0.45026432892448226,1.17866624512133,0.0,1.2763175937546931,0.5734674170751529,564.0,900.0,23.07839453125,1,20,125,55
0.386894667798865,0.3375417492025395,0.4742023843877992,0.39692517809572664,3.125516954767277,90.77147776929598,0.3342581342128472,0.7203163815864256,1074.0,841.0,113.696140625,1,20,125,55
0.05945674863585595,0.22097009380565782,0.06580987784013964,0.2935261826241682,1.8737552864059586,0.0,1.7595654685777253,0.5229816396847236,568.0,663.0,9.1560419921875,1,20,125,55
0.30123744723245094,0.38139214079825173,0.30603256645196536,0.45008373557720266,10.0,0.0,0.1644729703910024,2.353564582241234,404.0,404.0,12.1043466796875,1,20,125,55
0.2625521542237361,0.3700704265407661,0.26369936506195635,0.4713088468700835,2.2604062227558264,0.0,0.4823632966161395,1.6298253336153092,607.0,656.0,13.956730468750001,1,20,125,55
0.2868479415512893,0.3487926384584404,0.2891542808990987,0.438362823428175,1.893594778368631,185.61845953628833,0.5419303657249883,0.603006892746674,806.0,1455.0,16.0960654296875,1,20,125,55
0.21141491680898505,0.17928631087289296,0.21149636751364678,0.2598021543252352,2.677045908273686,14.082751287317704,2.4449259113743516,0.9326865016414675,845.0,1192.0,9.052396484375,1,20,125,55
0.20927921591194312,0.28539349063164965,0.29240161282517085,0.34768876988786523,0.899612703491251,0.0,0.7777192612773218,0.9835555195377539,523.0,577.0,33.431414062500004,1,20,125,55
0.23625559667740484,0.1736013442772007,0.23726685563920735,0.24293625214204534,0.532936417474072,101.27678591027198,0.9456438219313723,0.5332719528280452,444.0,546.0,69.14931250000001,1,20,125,55
0.3983539464140772,0.4733655835206523,0.41586799090097226,0.5444961923412129,1.2017388406525045,0.0,0.1543853730946397,1.122271244120072,977.0,839.0,35.2912734375,1,20,125,55
0.3833741728006991,0.2935405434205482,0.39522832786534734,0.3569590186918865,1.2046026690751848,51.52174352662573,1.552000820887181,0.575514442665686,522.0,779.0,12.843981445312501,1,20,125,55
0.29945880742262054,0.4553595730805533,0.30346385960170474,0.5503490620960795,1.677536427944518,0.0,0.05219224134994471,1.2554690486187856,436.0,600.0,3.736310791015625,1,20,125,55
0.1332810346068543,0.3529883756834237,0.15232598736990074,0.4041960299279018,1.940195814653825,0.0,0.10214236521517694,1.2327019256787703,814.0,657.0,11.5884853515625,1,20,125,55
0.40207467740085934,0.38406116055295025,0.44402046359781566,0.5056618577446135,10.0,0.0,0.8050921711062096,1.0692732542036278,428.0,614.0,38.87105078125,1,20,125,55
0.13325874343708452,0.4604370778100019,0.13325874343708452,0.49800964141074905,1.4912766946990268,5.490344885895163,0.36842268204210427,0.944447603742334,924.0,1303.0,11.734875,1,20,125,55
0.36817970259688687,0.26078799927888685,0.44515024770985473,0.33132490505121853,0.651665120625864,25.26366501425923,0.049242129921904354,0.6905285231921741,882.0,1640.0,17.939359375,1,20,125,55
0.3453908497088584,0.3777629931294088,0.35582130978107884,0.40788610623546345,3.0457544574375603,0.0,0.2538672968942337,0.8641494922842908,641.0,1020.0,11.815993164062501,1,20,125,55
0.19596146881024554,0.267030147990318,0.2040871280613269,0.35024611364484093,0.7636032276552092,16.735475074037627,1.4504749524275546,0.7870315133839174,566.0,837.0,19.9166953125,1,20,125,55
0.5963096566350761,0.30431623252823614,0.6579233697276069,0.3751394223147646,1.7898307189428666,53.413858159622144,0.3787202420845265,0.6425483026299403,393.0,800.0,16.750421875,1,20,125,55
0.4899282638590499,0.32755146878079866,0.5138417169511171,0.38904836283692895,1.5452710412481245,0.0,0.22314780203378626,1.0527998529417129,472.0,469.0,15.4646328125,1,20,125,55
0.4775084002312263,0.26241208336432925,0.4984157182385708,0.2894036874514288,1.1139560779072257,12.164739926835194,2.368247024776567,0.9675530376122302,512.0,809.0,18.17513671875,1,20,125,55
0.36312025027760725,0.22452988172091076,0.38929332601148026,0.29649380197584474,4.26504325554689,9.66936829640485,0.3371525083257946,0.6407340700847598,961.0,1456.0,117.3307578125,1,20,125,55
0.3611120140349196,0.34798954662120923,0.3927503657558818,0.41710108499956805,0.7547321465604346,101.92384529102279,1.5316076210799583,0.6298119786751508,1057.0,1720.0,111.220984375,1,20,125,55
0.25793967510580057,0.47974621286865604,0.2962275399846586,0.5505349985827638,1.4692999842487822,85.7472909605857,0.5516622467335961,0.6473043339711544,561.0,1092.0,12.90223046875,1,20,125,55
0.40283632469603536,0.3461914819616569,0.44561980070975604,0.4170905307396576,10.0,0.0,0.6738404673479408,0.6509953759148926,639.0,830.0,8.984435546875,1,20,125,55
0.2363299708254151,0.5082643177590752,0.2505210331410205,0.5445346450271682,2.109245006199342,0.0,2.135620232503308,0.6612253832817029,721.0,385.0,16.672478515625,1,20,125,55
0.2862204357835024,0.2428387259971511,0.309698683371202,0.3031968541706475,2.0179663990846297,0.0,0.7290160823925942,0.5063205038912848,653.0,1292.0,18.529369140625,1,20,125,55
0.320228626000135,0.5336354347406208,0.38379054770458065,0.6100157671537769,1.5984415367664795,0.0,2.3566081106591596,0.9959466621615679,567.0,608.0,10.5084375,1,20,125,55
0.3984678222544182,0.43880660774206803,0.3984802866301799,0.5044205778715268,10.0,0.0,2.4721880050643685,2.028896832224491,476.0,936.0,20.367234375,1,20,125,55
0.2862534434973746,0.412997011897495,0.30610747604304367,0.44322620756683556,0.7007755493688134,87.53637695575597,0.29965585241327675,0.7027727325863389,1086.0,2440.0,108.68286718750001,1,20,125,55
0.2002738473877237,0.38450175411513604,0.21566288110343643,0.49214020493385,0.6946184262514284,0.0,0.1551762941062036,0.7381868449238491,348.0,456.0,92.8860078125,1,20,125,55
0.21670090960681784,0.17962374953274315,0.3002786700134084,0.19436935766934965,1.7556840683964698,17.479839191632514,1.1516727191921388,1.264870282946304,472.0,705.0,18.444695312500002,1,20,125,55
0.5255757447146786,0.46593486487510066,0.581153991889109,0.5083942226051997,0.8203667882531694,7.287908557853394,1.5010952583527404,0.6364494399164272,691.0,876.0,82.87509375,1,20,125,55
0.34223119481980313,0.23566976025266448,0.34317179030760475,0.27077221044494,1.1906343683893126,36.79041426297962,0.5975623649144772,1.0739422136885204,817.0,544.0,18.9315859375,1,20,125,55
0.43530452891614446,0.25336076739818486,0.5072861178690906,0.34602983700541445,2.100610258035686,44.78608152399312,0.004462304965717312,2.1182778489674114,1183.0,2021.0,13.207750976562501,1,20,125,55
0.4010688285723366,0.2730144032152694,0.4036606566077921,0.32659173624201776,1.835355534266572,0.0,0.4858965847998151,1.8448604666335078,770.0,1212.0,16.280662109375,1,20,125,55
0.4363975540500316,0.34068917696451023,0.47592049875306097,0.3964497264041899,1.3309461180766633,0.0,1.108880611229122,1.4082881698256582,806.0,1276.0,17.794244140625,1,20,125,55
0.40439470042004794,0.2962911148943937,0.4288089277114245,0.35901506510737535,1.5064980403390447,82.71829235906495,0.3396752989110086,0.6632054093731693,742.0,1607.0,10.985568359375,1,20,125,55
0.4954480285429069,0.4723967759638423,0.5426358884374464,0.5248737225430947,1.9748229932197408,0.0,0.7130557605873687,0.6357137372765942,534.0,475.0,14.774263671875,1,20,125,55
0.4154553617365349,0.27989065125307144,0.42912940440687974,0.34826606243371383,1.2468445293969386,32.145930774213696,0.8079300120294208,1.3517314565604797,418.0,430.0,41.250718750000004,1,20,125,55
0.7208580782201098,0.3820068604356923,0.7211432109368527,0.45930760545280175,1.8488998346362162,0.0,1.9196973981316208,0.770141599809798,637.0,458.0,12.502861328125,1,20,125,55
0.1998296601808483,0.2792152943883404,0.21769765070015085,0.39868600022167,1.8550107405255358,0.0,0.5562537050993086,1.3589384312929338,625.0,648.0,24.431609375,1,20,125,55
0.6586251331535083,0.30961231475837525,0.6669564883818642,0.36559576948578887,2.4645969498305362,0.0,1.9201751369215998,1.4038674067319932,932.0,1730.0,13.7390322265625,1,20,125,55
0.35100516243455065,0.2607094746977003,0.3669833913075136,0.3620920995333767,0.6199642276220722,43.169381059221365,2.571085889307263,0.7199777273582443,1189.0,1358.0,7.5077646484375,1,20,125,55
0.25535369823764226,0.3827168257913639,0.2758411933355864,0.46762678675330854,1.8054610022935496,0.0,1.0198053458444387,1.2343703141959739,425.0,689.0,12.0137109375,1,20,125,55
0.3640749517147745,0.4117459860769836,0.4037618507459928,0.4581956877657413,0.6030087382665272,0.0,2.7516321192612643,0.6958740395955983,420.0,350.0,13.6795048828125,1,20,125,55
0.3424004648452952,0.29501143290154946,0.3751627884404153,0.3636112552990526,2.968582013439588,0.0,0.4496740943070281,1.7391527468893655,593.0,860.0,9.0434228515625,1,20,125,55
0.500723481316275,0.3474981548253927,0.5093346126809241,0.39558926683412066,2.385447011006035,15.852661621077402,1.642406014665418,1.1587467378765963,561.0,949.0,14.7032978515625,1,20,125,55
0.5216626702032909,0.34324348818409334,0.5814563788969975,0.3888043003983615,2.3247120831933548,0.0,0.17163656565343244,1.0188669245981459,570.0,462.0,15.866017578125,1,20,125,55
0.1236807173441935,0.11206022831753494,0.12672949201715694,0.1375580711046549,10.0,0.0,1.43297383885966,0.5652811538876829,560.0,426.0,14.748267578125,1,20,125,55
0.3598605427440146,0.27766431927072077,0.3629192739382358,0.3647266606232721,2.316753211936267,0.0,0.08809901241773632,0.5062275996400919,642.0,628.0,7.9364052734375,1,20,125,55
0.48520802511486977,0.3462070630257775,0.537693824849001,0.39248335139754864,1.293047709182269,88.15540001245965,0.05587411255312258,0.8031996412897066,1128.0,1883.0,11.1737646484375,1,20,125,55
0.3566083830059128,0.44714041452929093,0.4147940794732974,0.5040903357980343,0.5161478185297745,18.09380471204933,0.44714545720862675,0.5695255989710765,644.0,1364.0,14.434955078125,1,20,125,55
0.4242213039961178,0.2805811892963357,0.44476522966168575,0.30899035169897776,1.230839736334805,0.0,0.9323435908348376,0.5335246639963532,543.0,581.0,40.7078671875,1,20,125,55
0.49139867281938426,0.4089296379268994,0.5058648630456026,0.4589180773716108,2.538089352228187,6.575506389020537,2.219107930095028,1.1624872427540345,714.0,1193.0,24.987525390625,1,20,125,55
0.48913655367868075,0.24241609620749033,0.5561726636978539,0.308909677743776,0.5300959648190869,0.0,0.5429641196925079,0.6551712269371565,388.0,879.0,21.703140625,1,20,125,55
0.6509225075767703,0.33355391275842133,0.6514769811297233,0.3878419592797906,10.0,0.0,1.8469877284588732,1.7222431325753262,432.0,785.0,13.4123740234375,1,20,125,55
0.41710985302262804,0.1769051282992114,0.5306593489283968,0.25855453588087063,2.7674889125487736,0.0,2.230584548629535,1.1496921847913917,386.0,498.0,84.2040390625,1,20,125,55
0.2992784802713294,0.23511174733116952,0.3832942774900018,0.3284467140932626,3.4558055506739542,0.0,1.84709483509375,1.0409994608299602,448.0,996.0,79.6503515625,1,20,125,55
0.40140630366660207,0.23126333010681432,0.5729036065161565,0.2846727996550759,1.7248080667050742,0.0,0.340541956654441,0.5747960044939018,622.0,656.0,7.7626542968750005,1,20,125,55
0.29143952341791857,0.35837450991314457,0.2915426199902134,0.40469304474446943,0.9898783848082606,69.93780445048182,0.37230423152794967,0.8874485707240618,933.0,962.0,13.9282587890625,1,20,125,55
0.11595419703449161,0.2121529368537438,0.11650446060209332,0.29537188881423987,0.5951454178977145,0.0,0.46341316513424097,0.6572419195822411,406.0,451.0,12.7254677734375,1,20,125,55
0.284910727532826,0.36174973143303946,0.3114161545852583,0.4541212005490517,0.9801381500047361,60.12260215767429,0.019287251224786583,0.9241521233814478,781.0,961.0,25.719474609375002,1,20,125,55
0.13385664000821604,0.40660569950517295,0.14834551699944964,0.47419961045655856,1.6734296617816815,0.0,0.6011569026069639,1.2433049693175475,436.0,708.0,22.710966796875,1,20,125,55
0.23548121087950644,0.26335472177957014,0.23602696213790533,0.3502050232627714,1.6574425568249462,83.99999492719644,1.0128940289452197,0.8071544618310244,687.0,547.0,107.97734375,1,20,125,55
0.42908751687658414,0.4483816806287686,0.5078322057740172,0.510180683893946,10.0,0.0,1.4736387821132846,1.0471811017647243,418.0,259.0,14.958529296875,1,20,125,55
0.3793870867132291,0.2708212979464493,0.44187803535086745,0.3238708027750979,0.5694576054931517,25.289023748357124,1.251353919843825,0.5971792186356033,586.0,694.0,28.828259765625,1,20,125,55
0.22262710618161963,0.44259089970848653,0.22287269366652945,0.515658816189053,1.0767111267451306,0.0,2.3278404757024282,1.1402222960979165,949.0,1015.0,23.7171171875,1,20,125,55
0.18902494763598948,0.27361231555603716,0.19362781576244026,0.38294863226421916,10.0,0.0,0.6149227542217877,2.7485736569806383,368.0,514.0,15.785669921875,1,20,125,55
0.1444456427207946,0.36141019176237965,0.14574893020471566,0.4326587225005266,2.021060102399101,0.0,0.7730484734072844,2.0098240369717204,467.0,586.0,16.2048701171875,1,20,125,55
0.5484654593436322,0.3631861840024951,0.5908712594148625,0.41870212030994786,2.9477828274284774,0.0,0.09344433499415516,0.8129749246259788,628.0,674.0,7.068568359375,1,20,125,55
0.16230993327655444,0.2574784264564379,0.16990291618041448,0.2853288337194132,2.934217320857619,0.0,0.05624232714291044,1.7492105515285155,607.0,763.0,16.627064453125,1,20,125,55
0.5270539891000255,0.31009394515767186,0.5470651260709696,0.3870180511684131,0.9703483992139693,13.750934777877482,0.1955658081863798,0.5288434601283108,936.0,1082.0,10.071111328125001,1,20,125,55
0.1655191682836742,0.47313088644513285,0.16819449791769486,0.5532373801771311,3.275047020406462,7.183188821836343,0.29530642197956336,1.0613071754422858,736.0,471.0,7.4090107421875,1,20,125,55
0.3170612529993968,0.3733717088268884,0.4366278085479069,0.41746343306694333,3.0201544716345206,5.87483721075753,1.853430392578325,1.0949900739886291,715.0,968.0,48.717652343750004,1,20,125,55
0.1649205291202375,0.4185677979219589,0.2831947045811217,0.48911798187085503,3.0352156476103693,5.421132588478073,1.0417651313214717,0.7308774894325045,679.0,770.0,16.44358203125,1,20,125,55
0.2425361882174721,0.2987577562966763,0.2804465378808935,0.34185051716056547,1.2168675491257925,7.27887989258691,0.44286676329817,0.9446031255982056,547.0,897.0,10.1176357421875,1,20,125,55
0.21903756458079945,0.29535678472489535,0.22012596575362653,0.38969611052547753,2.344481037250188,0.0,0.24790367299717264,1.0474269917799373,793.0,850.0,5.9784960937500005,1,20,125,55
0.2513203969830043,0.2743382925354384,0.2533188045239079,0.3417445183713021,0.6143918763527799,0.0,2.6503347239632413,0.5336786777505707,476.0,647.0,19.425279296875,1,20,125,55
0.36662097874298705,0.18158237038019626,0.37392204257063116,0.22459699162858018,0.8865463602461476,15.687164526491422,0.9546881062293364,0.7332680565111828,337.0,596.0,9.17912890625,1,20,125,55
0.15599818957461717,0.25148257244573324,0.16584229039861872,0.3672570611487303,0.7551267435777638,5.4282149795554755,1.0591309963161408,0.6318591297366667,431.0,364.0,10.7581826171875,1,20,125,55
0.4626326282532853,0.32942897628617634,0.5024873364648698,0.41725849347564287,1.1298936345105062,31.459324640370887,2.4811389772525105,0.6177630399773648,572.0,770.0,9.642845703125,1,20,125,55
0.4591459522102981,0.25627135085738967,0.482525376605886,0.30044877290620664,2.2864283758867856,0.0,2.7784414971430422,0.8442879625181419,447.0,497.0,17.98453125,1,20,125,55
0.4138208888679283,0.3016143081170689,0.48460724443262454,0.4066433973860242,2.072598371497015,0.0,0.2172112901985923,1.8269961344488397,977.0,1171.0,5.4324228515625,1,20,125,55
0.3665748214266638,0.33583021679410363,0.3690211881846392,0.433371557177182,2.7615580970906346,0.0,2.83043469124034,0.8841630378043038,502.0,697.0,9.17616015625,1,20,125,55
0.3339700597296356,0.35696229583170397,0.33417557276753973,0.42175234115478427,0.7369842845094947,42.03406824176043,0.7260135523354472,0.8213436589536561,1631.0,2868.0,95.37634375,1,20,125,55
0.4592638808757014,0.47923910246320983,0.47345343731898315,0.5442429706021834,10.0,0.0,3.057377043537774,2.1477497915247157,409.0,723.0,20.5756796875,1,20,125,55
0.5017602983963527,0.21754524132923575,0.5130908724298556,0.2769607202037647,2.025257320219917,0.0,0.5639195456707369,1.1364537681602396,608.0,742.0,15.913359375,1,20,125,55
0.4050039017707723,0.22603431639403299,0.4140420647836051,0.30964570684111137,1.9129675198502076,24.760396715777382,2.2081396416592973,1.1286944108905617,327.0,602.0,8.826569335937501,1,20,125,55
0.1376682668513006,0.2752260488763068,0.13917784319101903,0.4258287527936813,0.8676358081102113,0.0,0.11874722198678296,0.8915542157315671,322.0,494.0,20.9097734375,1,20,125,55
0.2542628105831662,0.32659134521144134,0.2733384967864805,0.4015926266897743,1.6616980683993987,17.411953838385422,0.3108600357099259,1.0694308691537828,715.0,1013.0,15.3235361328125,1,20,125,55
0.5194320332448925,0.2740743168737548,0.5615195281387636,0.31648611931998516,3.1197297154555534,30.298135669801606,1.2589519018244064,1.0380305285826905,912.0,1636.0,13.034705078125,1,20,125,55
0.5729564408605146,0.41499107753843745,0.5743117534858727,0.47499553105583264,1.5621874771006021,34.157588097379104,2.3013270403122066,1.0078698097520649,372.0,408.0,33.48503515625,1,20,125,55
0.6486326192041858,0.3113603347234484,0.6901914935996472,0.37209480403645956,1.3448769903547484,6.423137613879787,2.669358608652142,0.9654222006355151,562.0,649.0,11.12748828125,1,20,125,55
0.13460407568038363,0.14309434221454656,0.13546834189154405,0.1707854871753957,1.153584999822752,5.519089892461705,1.7452567919143955,0.7691886756957942,533.0,358.0,20.991837890625,1,20,125,55
0.3160859946518999,0.17747539907251303,0.3335806854747812,0.22685090546496048,0.8944460986932409,0.0,0.78151059993895,0.9539281459800746,615.0,1090.0,26.77309375,1,20,125,55
0.20196429986602404,0.376103783041299,0.35165705347609216,0.43222206866067564,2.9666201718372998,0.0,0.02725938793050975,1.2695829448769904,958.0,947.0,8.68481640625,1,20,125,55
0.16680934715201365,0.28377498846241644,0.17273653066259348,0.3788374571570598,10.0,0.0,0.023165492193324866,0.6782388468409059,668.0,1257.0,6.50019970703125,1,20,125,55
0.2826277971188819,0.2045443296287955,0.36104331044787946,0.2744030768334638,1.6383476402751895,0.0,2.088836882362436,1.4316555388259458,714.0,1177.0,8.8935986328125,1,20,125,55
0.09475178327272371,0.36147983736135775,0.10074634497984315,0.45487516479695156,1.0500714462435023,83.99674720686194,1.2685306941656476,0.9698196792364271,643.0,767.0,9.80719140625,1,20,125,55
0.25258384233075065,0.15213858611261183,0.2606264575151998,0.20960685419193284,2.1134443626850583,0.0,0.9862679691026428,0.7472127086652439,409.0,754.0,9.415703125,1,20,125,55
0.3833884367172182,0.4033918491587898,0.41213746551929287,0.4544479499442738,2.6232470899718123,0.0,0.4205706931005033,0.6509001276212492,765.0,1043.0,10.1,1,20,125,55
0.39167738664459434,0.30707532903705953,0.45165201935334,0.36326957253539693,1.3641170394846902,54.49264947040974,0.2652295537581677,0.5733914051466364,587.0,602.0,77.8967109375,1,20,125,55
0.38100592902125474,0.4447277860071729,0.4059582163060633,0.5001572479784612,10.0,0.0,0.6423701594298978,0.5183861006048714,618.0,957.0,19.23180078125,1,20,125,55
0.24810199782320122,0.23621845799004523,0.2526547557738649,0.27293795537792953,0.8772909253792851,0.0,0.23605142440819593,0.9573336236013372,469.0,531.0,59.73026953125,1,20,125,55
0.26881881448216993,0.4416698032017476,0.2715985065517241,0.5343101967566575,1.5265478419689253,0.0,0.14751897114718426,1.5287349501876288,913.0,994.0,23.2080546875,1,20,125,55
0.14884740156111909,0.3414606553651721,0.1523819149579965,0.4663926236454351,1.3930441016904376,13.74262265201897,2.0121771400777213,0.5443677803124738,578.0,626.0,11.7092548828125,1,20,125,55
0.3329677045045452,0.3060141726540348,0.39252333655999594,0.3599827520048312,3.443468103276914,6.04490245302251,1.0652760888359498,0.8276358189786225,778.0,1018.0,11.531521484375,1,20,125,55
0.2373937694983373,0.21536326223831276,0.24314464386281728,0.2515068558289266,2.281529142978535,0.0,0.1668341848285665,0.527799177270238,461.0,659.0,9.6332578125,1,20,125,55
0.49999492988073435,0.32125058971578085,0.5882305446251619,0.3794415006857998,3.1268975999761692,0.0,0.992654164588942,1.030806347684844,1089.0,2054.0,12.9514892578125,1,20,125,55
0.321943689380108,0.254789757077772,0.37736547161518574,0.3036369203689003,1.0336611459497822,0.0,2.07054055203806,0.8739265284829604,1063.0,1592.0,7.9982065429687506,1,20,125,55
0.34759523901497635,0.35294472700663265,0.40917317562070077,0.3922309790043108,0.9507026477805487,6.1225654861267556,2.988314077873526,0.9653847472869496,659.0,1046.0,10.37977734375,1,20,125,55
0.25858478348501,0.29374558489408786,0.2630448978451289,0.36711276631645373,2.3709396574163657,0.0,0.16670561590803512,2.045555693112816,599.0,660.0,11.4390927734375,1,20,125,55
0.08851163797643859,0.23744698532915082,0.09786265600599965,0.2757371848069513,3.081046504774299,0.0,0.04213544740213182,0.53970505545361,567.0,940.0,16.302845703125,1,20,125,55
0.5183764657447879,0.2588039875276648,0.5552998596686163,0.3212119510664189,2.5743848205571074,0.0,0.2958984809586491,0.6300916954265192,929.0,1242.0,15.4681162109375,1,20,125,55
0.22999814836115853,0.17884251485070957,0.23425959402977564,0.22253027471980696,3.149963640879573,0.0,1.0182372709599417,1.1354184648348682,658.0,873.0,10.647727539062501,1,20,125,55
0.2785817626536529,0.245485688142341,0.2851596006447395,0.3209295017941614,1.8247595110158719,0.0,1.6678695286482705,2.548507888716709,349.0,708.0,27.676259765625,1,20,125,55
0.4636369505637379,0.3782621610346088,0.538718510206571,0.4162993123157962,10.0,0.0,0.0663519857322753,0.8309943785305642,366.0,563.0,16.350068359375,1,20,125,55
0.32462379831853055,0.22499542059347144,0.3276603505663106,0.2871486784298861,10.0,0.0,1.2622097825124252,0.5739017290087995,726.0,821.0,10.132587890625,1,20,125,55
0.5986114842210283,0.4585588437730348,0.649593948654734,0.4987881953428412,3.6448268055675297,7.205931826055814,0.004397313715175155,1.6754682681096806,978.0,395.0,18.58265234375,1,20,125,55
0.2167861413626034,0.35440671370504867,0.2190571186190358,0.42996259482144333,10.0,0.0,2.1018085255269483,1.05659617111707,924.0,691.0,77.014578125,1,20,125,55
0.18448166592877896,0.2427830577330985,0.18708861061252752,0.32455251109314154,1.870092674584442,0.0,2.3264580593995428,1.008414860465037,686.0,1395.0,7.57845751953125,1,20,125,55
0.2010766121992896,0.16827799630599927,0.22105183662659744,0.2383307616636847,1.1904944553684582,0.0,0.2259520561824886,0.7596924133376516,413.0,575.0,11.63451171875,1,20,125,55
0.09024901684323773,0.19451187864084626,0.09059808297688221,0.2054747092183205,1.8880142315943333,0.0,0.09085887288482808,1.6895065708155435,632.0,868.0,12.1624072265625,1,20,125,55
0.22286967284059842,0.23254403270240173,0.2244021386252646,0.3319738595104435,2.360636365400697,5.348092856095587,0.5199478754224633,0.6930821803702383,414.0,444.0,98.46237500000001,1,20,125,55
0.39837052594723354,0.2602471416546874,0.4824852181790968,0.3216278897126205,10.0,0.0,0.6179253482395644,3.606961094420899,579.0,853.0,33.66532421875,1,20,125,55
0.26689082189406477,0.27259912449773205,0.27738536218359344,0.3508577357711503,1.4282428316305629,24.06897664099829,2.208468205255392,1.2920377371704874,820.0,1748.0,33.72266015625,1,20,125,55
0.5562270533720193,0.33556338271781083,0.5765446638752902,0.3980730298410757,0.7425221082174308,7.988100703689007,2.8869589536427025,0.5198666414139783,686.0,1026.0,12.2253984375,1,20,125,55
0.2801178859928186,0.26406992369625326,0.2836363188321158,0.33281882031813803,0.9823071558438667,260.24501282243733,0.9166445234412723,0.9394824125797694,473.0,393.0,9.177515625,1,20,125,55
0.31034196195484537,0.2580494089175009,0.3212049315603445,0.34200187860972076,0.6644668595600266,0.0,0.32758404270565045,0.6629272757783097,484.0,814.0,35.633632812500004,1,20,125,55
0.5747847575292689,0.33713884276953937,0.5933230254686302,0.37111343754933335,0.9668389383977638,33.06321147817122,1.7030143733573846,1.144099292991476,806.0,1075.0,8.955681640625,1,20,125,55
0.15587667576691328,0.24636942111814394,0.16970878075984797,0.2776293397694941,2.035740222998491,0.0,0.8570291657670963,0.61553832621836,664.0,993.0,61.54773828125,1,20,125,55
0.3929525987572388,0.4265488284992587,0.4097874134247589,0.5264573198086252,2.783260013038469,10.600915301172003,2.970414785058706,1.5923243274041392,358.0,502.0,13.046044921875,1,20,125,55
0.25885042671323083,0.18181107243348255,0.260041027517536,0.21836380391741686,0.783577313055128,31.30215362241083,0.20528193957912577,0.7966598327080667,341.0,369.0,83.044625,1,20,125,55
0.47289801776217455,0.23695440487659974,0.48261405411308583,0.2897840574596051,2.4081334629770383,0.0,0.14313591095281541,1.5194541931952412,422.0,496.0,12.7642412109375,1,20,125,55
0.4064759715611447,0.320399797537268,0.4252809213877263,0.3741892159674996,1.6927397948487928,81.36602300917698,1.0740815876465655,0.5751857674309854,919.0,1150.0,18.184552734375,1,20,125,55
0.19698215118017084,0.33161938646621425,0.21173098569710544,0.4292372805441915,3.3711739388917557,23.65892105233703,0.35487834566708976,1.5395773431160062,521.0,764.0,10.22175,1,20,125,55
0.3569715308186376,0.37873521984416225,0.4151508297935417,0.43797252938092374,10.0,0.0,1.479606659744171,0.7064604052407794,768.0,755.0,12.77785546875,1,20,125,55
0.35868687109378694,0.510894485097557,0.36205906869758064,0.5781938628154807,10.0,0.0,0.7607848628285533,0.938935914575635,454.0,523.0,14.7497548828125,1,20,125,55
0.38035671852328323,0.3126321508895817,0.39439758310422013,0.3744001752103362,2.1290210794414515,0.0,2.8357265038812303,2.0703337873328493,302.0,376.0,17.620994140625,1,20,125,55
0.21615356057630963,0.23127495962228958,0.21711092891971273,0.31863959217491866,1.0158679178620451,60.78856617674324,1.7627756653548583,0.6570317374863206,754.0,1309.0,10.5816845703125,1,20,125,55
0.1426602486019733,0.35603589801283503,0.1427679428993171,0.4181174754176763,1.3853775042240486,8.642191790360938,0.6276452372160659,1.4290650972919552,984.0,1188.0,24.89283984375,1,20,125,55
0.5782555068543673,0.38260174284480397,0.5804011849894896,0.43596182333400774,1.2173885199275207,0.0,0.17234101149692327,1.197355579667824,340.0,301.0,21.375326171875,1,20,125,55
0.2797449442823398,0.24714907147865364,0.29750628031246584,0.30576775316916516,10.0,0.0,2.157289012678778,1.1887387735567538,610.0,904.0,17.288048828125,1,20,125,55
0.301383135325925,0.26335694046451724,0.3432249927545074,0.36490996794408936,10.0,0.0,0.6568757857892574,1.7460409798445424,962.0,1622.0,12.42465625,1,20,125,55
0.2965873291958823,0.32663484593906195,0.3707193030691878,0.4171626884589736,0.6400840716011743,0.0,0.4123861379516083,0.6891525125904935,895.0,1194.0,15.3503916015625,1,20,125,55
0.1613687778177951,0.25392196215522683,0.16424512715256315,0.33212774015377144,3.5187710448663334,0.0,1.2212811873693237,0.9942595019361778,401.0,404.0,11.2548173828125,1,20,125,55
0.49311791892245593,0.25015206062502726,0.5258204469946353,0.2921987507685239,2.2876529194424435,87.28747819285338,1.2791547280799547,0.7701481442879751,937.0,1818.0,88.10543750000001,1,20,125,55
0.12870007339932807,0.16360216236377254,0.12883759789769478,0.2055916333211501,10.0,0.0,1.4014350380453204,1.038472636238619,381.0,606.0,19.58404296875,1,20,125,55
0.2093628555983477,0.28652030011236534,0.21366824952330118,0.35438267796383754,3.065433348899967,18.093850246701102,0.1572797524812115,0.6482136807086474,920.0,1152.0,15.486216796875,1,20,125,55
0.4509860672653063,0.3157210816703823,0.5845446271817659,0.3807689486731864,2.9553941684889087,0.0,0.3986481110023601,1.3336390226181163,977.0,1583.0,12.8180361328125,1,20,125,55
0.25854039645728355,0.3270482669119204,0.2667731249106267,0.38560875183623455,0.873507233149441,12.350973872326758,0.48849793571340694,1.0491338483228851,463.0,629.0,14.5853984375,1,20,125,55
0.19302295438655045,0.3056139004152348,0.215634993412107,0.3759492243461496,0.8452704847103653,0.0,0.36408241178929135,0.8287415970385574,362.0,481.0,13.570195312500001,1,20,125,55
0.4456891698275523,0.3192999830863038,0.4744360518283485,0.3808156198057823,10.0,0.0,1.0882391553433686,1.2696843112703589,366.0,376.0,15.347650390625,1,20,125,55
0.36766594598747965,0.16055601162945266,0.3687068559346303,0.24861811442463516,10.0,0.0,0.637077900733336,1.5554970577682896,968.0,1548.0,27.329505859375,1,20,125,55
0.3398985862280379,0.2661530689614444,0.34940002539986,0.34090086098803535,2.785510969427713,8.508159108977035,1.4145991178745656,1.3580266482243146,598.0,893.0,12.07795703125,1,20,125,55
0.27989831804132853,0.411700495288247,0.4066175512120235,0.5085516027007232,2.073641866405575,0.0,0.10828722286581871,0.5134849369156727,548.0,641.0,11.0046318359375,1,20,125,55
0.10591858083839138,0.5396393451814824,0.10605695357740998,0.594333250951359,1.641151826626364,35.09178060896275,0.1419863567948525,0.6376446900099662,354.0,510.0,74.961625,1,20,125,55
0.18550422229366298,0.2635846272793014,0.19050453738309864,0.34073630446613506,2.786824210476035,11.598891930091263,1.3104392617716725,1.766853713876008,422.0,519.0,7.2156943359375,1,20,125,55
0.795252433556254,0.3773027530775361,0.7974876267679116,0.4249103881701051,2.270852749439585,40.25662020994261,0.08350154254725628,0.7979275465311046,924.0,1638.0,106.065734375,1,20,125,55
0.15827466836193635,0.34766043477005687,0.1683231959811583,0.479997645697399,2.3178766569068188,8.77064393698038,2.3291555923740264,1.6873765672042371,681.0,670.0,16.3918359375,1,20,125,55
0.4937058656198522,0.21757500440796276,0.5516004351215654,0.3007670180954998,1.0660913244980412,65.49901766339221,0.404485241248425,0.5349131704081372,874.0,1587.0,81.99041406250001,1,20,125,55
0.4494149891688024,0.2688546609923096,0.4623693931245151,0.299896752821901,10.0,0.0,0.8975217015878049,1.0409422186196362,968.0,1218.0,15.314911132812501,1,20,125,55
0.4284073303120395,0.37754435494537303,0.49329397151281346,0.4233860713197607,10.0,0.0,0.4256724069719643,2.1291935753566364,651.0,1067.0,19.524943359375,1,20,125,55
0.2740585980273765,0.1678805836637838,0.3526941568313365,0.21547540722332947,1.7071863684981345,22.850208451371753,0.5538719301688686,0.6311826039666608,495.0,530.0,34.213390625,1,20,125,55
0.34957350121891895,0.3556058859221025,0.37875048836027675,0.41815436968185066,1.2862364881423902,26.17528284078398,0.33762621327991393,0.7669251150694769,1102.0,1259.0,21.047947265625,1,20,125,55
0.1332856776750557,0.3206443468180718,0.17855324837925352,0.3950293908234486,0.6993442041210313,0.0,0.2608347778022386,0.5917593568888798,738.0,1207.0,15.796810546875001,1,20,125,55
0.34076105334913276,0.33520357110879434,0.3989895027880799,0.41057705042092735,1.2310237925014447,37.581180837241384,0.006431706786575855,0.5574628498985932,664.0,897.0,21.929439453125,1,20,125,55
0.10694754181908543,0.3200493136330235,0.15254565009678242,0.4307907201128675,0.9770892316525369,36.26484631467014,1.9396454646893124,0.9718174407387137,528.0,603.0,12.481697265625,1,20,125,55
0.4557228889767912,0.4793352940409195,0.4991220968899409,0.5305362588604136,1.024119287381335,13.048514636770799,0.11176482855338321,0.8091842705341603,602.0,455.0,11.114411132812501,1,20,125,55
0.27025333729447215,0.4225873240645692,0.3091997333349395,0.45362885197144126,3.1915089487414963,6.451568262499718,0.5212365142814914,1.4098342900841285,588.0,496.0,9.154400390625,1,20,125,55
0.1740610312176062,0.30625833306552297,0.1781051338393722,0.45402846873992553,10.0,0.0,0.5253905955140298,1.5070513847840283,406.0,667.0,10.7697333984375,1,20,125,55
0.20015024408372536,0.45456838771927216,0.23173252942396394,0.512729342543353,1.8761898124921912,0.0,1.8875534960927256,1.8717010067045854,578.0,758.0,12.0076240234375,1,20,125,55
0.21376800938689727,0.15579331320351567,0.21503723764335814,0.19146786816269565,1.9102768971201016,89.34319143569002,0.21037832876450935,1.1743245131795217,551.0,895.0,12.066181640625,1,20,125,55
0.25993687727800674,0.2890456325871559,0.2680078265425907,0.3462107681574683,1.996116782099038,5.0833284433137,0.3771265587492989,0.686705334173094,363.0,370.0,11.5191943359375,1,20,125,55
0.05941158677532566,0.23263272319812492,0.05978370217655298,0.36093668631652503,2.1507355617641424,0.0,2.8448726613872894,1.0500516501013493,518.0,808.0,13.685689453125,1,20,125,55
0.31120126657487934,0.384455040976518,0.3649448362006938,0.4564119782043092,2.9192017895100135,0.0,0.8049489702970041,1.2011375728492126,898.0,1161.0,10.5014990234375,1,20,125,55
0.5761758189032594,0.36720522911264586,0.6748289363510023,0.40539447733787276,10.0,0.0,2.999771705249241,0.742067431095712,676.0,1265.0,11.685360351562501,1,20,125,55
0.17931183747755808,0.17472909524745575,0.19090367249949636,0.26726158963821084,10.0,0.0,0.8699650935682075,1.0259111017802733,349.0,312.0,16.793056640625,1,20,125,55
0.07081079626269614,0.18968937505949388,0.07081101024026583,0.21974904216322988,1.3291034858010307,21.516661412936827,1.4247545413607794,0.844157250618924,662.0,765.0,26.533041015625,1,20,125,55
0.969363821937465,0.4866363987722949,0.969363821937465,0.5156423805695388,3.0065210396944844,5.506851161399442,0.1995213678298754,0.7112908518960627,515.0,304.0,30.367939453125,1,20,125,55
0.620869457649278,0.15006079600152825,0.6865206203504857,0.20175062941863908,10.0,0.0,0.10004908679648628,1.3929113239978574,593.0,576.0,15.663883789062501,1,20,125,55
0.5269178857776114,0.24425510243918222,0.574471383616924,0.2837249108634927,0.7801057105872976,21.340450784792342,1.143202946134041,0.5429883331690253,730.0,1387.0,154.005828125,1,20,125,55
0.4413844600280548,0.3653621878164754,0.5246878851306328,0.4256244609917151,1.3576942323170824,27.80712566179583,0.055111971744205235,1.3915438916940615,645.0,515.0,11.2284208984375,1,20,125,55
0.40896969671006084,0.36473829055782186,0.45715534356256493,0.4216775413817125,0.9559142794609958,0.0,0.1893096529398689,0.6824565630836271,1483.0,1745.0,8.834878906250001,1,20,125,55
0.2760989258276284,0.34896818886720987,0.29224993996793724,0.40889640786066106,1.8464712111216512,0.0,2.379202208875568,1.4471717002674724,572.0,765.0,11.31289453125,1,20,125,55
0.3788587045836688,0.37195457745753646,0.41517255180711204,0.4224188792705262,2.437191612075212,52.27651217345867,0.6316868539655703,0.7634545530550064,784.0,1315.0,84.385796875,1,20,125,55
0.7110710448427188,0.3829060425566357,0.7152552797734625,0.4385066304911489,1.8713504824192801,0.0,0.836232249578122,1.2405496210948628,527.0,685.0,17.49529296875,1,20,125,55
0.19457515353500812,0.3362368225875114,0.20569871591330427,0.41518343154664406,1.5421824593481137,0.0,0.7426296014503873,1.0444374626023052,1067.0,832.0,13.545265625,1,20,125,55
0.12533010948955162,0.4339758663155697,0.12908917858245686,0.5320387844836975,2.2682653399187482,0.0,2.148908917339483,0.9187152598100611,415.0,634.0,15.0450341796875,1,20,125,55
0.16086451539758834,0.2602895034697811,0.16572774136191853,0.42379957639496524,0.9536444618085299,23.780357459945442,0.15586741740207,0.6861540295636195,452.0,647.0,74.68516406250001,1,20,125,55
0.14753153631764454,0.2280380462455598,0.14757001752290982,0.314216698405516,0.9323425081208385,11.479421352527982,0.9223224842030908,0.8770287013384118,508.0,770.0,23.066978515625,1,20,125,55
0.3006415658808418,0.22848794521894944,0.3346408491365638,0.3221128646838983,1.6064822197246473,23.2176162300604,2.4775774965557815,0.5819721565285555,506.0,647.0,24.594708984375,1,20,125,55
0.20953087907556667,0.23975720730970976,0.21857389076626482,0.3225121120117859,1.7498059788616316,58.19893898121729,0.8779944195123984,0.5561420801766617,462.0,706.0,12.8343525390625,1,20,125,55
0.3141226863740015,0.2073754999870235,0.31946214939354156,0.2946994104261461,1.2595218001809596,0.0,1.5920417041701214,1.3754918750612446,545.0,600.0,7.13273876953125,1,20,125,55
0.4997715455358492,0.35715690738561345,0.593741367095413,0.4238991579432463,2.5048885741127638,25.253274004685082,0.7424086192922124,1.1746893734185497,1032.0,1203.0,19.016302734375,1,20,125,55
0.6247726316817998,0.39244328571191495,0.6625360254006285,0.4347296684863785,0.9247882806684627,52.24459457638103,0.0662738039821098,0.9096597459489879,850.0,957.0,34.9903671875,1,20,125,55
0.33795258200408407,0.48354213143902774,0.44699388784203337,0.5745165598952486,1.3156420010927043,59.37877044854936,0.2538080330598813,1.1391180643514283,541.0,312.0,12.0736552734375,1,20,125,55
0.11810709753258593,0.20557523936962746,0.1262683659940634,0.2901647031772214,0.7770857535510484,0.0,2.186820923788278,0.793631280815108,449.0,692.0,9.3224775390625,1,20,125,55
0.13830838930409423,0.22324113215440655,0.1469625769711271,0.2776440465983949,1.4727619797125198,62.5305936129042,1.954212702418125,0.9685683857225736,773.0,1658.0,13.2689423828125,1,20,125,55
0.4159044735404005,0.43674884790841345,0.5163138230294337,0.5034309182003053,0.6104184821198358,37.594295231773955,0.024478209383880678,0.6169929526721084,373.0,816.0,12.2484814453125,1,20,125,55
0.2191770186307407,0.23001484303759048,0.23234524862426414,0.3310206466714539,2.8150567504280213,6.232027310383964,0.6710468782404018,0.9524730653568486,989.0,1604.0,76.90034375,1,20,125,55
0.19060276083301164,0.251155927790757,0.19635279860547294,0.2942592614346062,2.0396103344141716,0.0,1.9740752274469753,1.3905921253626912,580.0,637.0,22.787525390625,1,20,125,55
0.16932363504807957,0.29745597295870274,0.32635794126849454,0.38953898933345327,1.6712966405533145,16.119605446015157,0.7471795097961987,1.2188799999938498,756.0,832.0,5.89906494140625,1,20,125,55
0.4106365580251719,0.4201927233504401,0.4111717901530155,0.4933950737314439,10.0,0.0,1.587928982313748,1.470510157871245,495.0,451.0,13.140848632812501,1,20,125,55
0.2443294294239975,0.22116663475451706,0.24756131060787975,0.310200924323996,1.9831223838391612,5.576334560103787,2.689468133311297,1.1342855927902429,558.0,765.0,8.3141279296875,1,20,125,55
0.18567424841719854,0.31604356919980414,0.19994118778956946,0.41427398943786325,2.3987730829235256,0.0,0.9520423889828495,1.61109265655133,499.0,315.0,27.652712890625,1,20,125,55
0.18633117095699125,0.3491285232980405,0.20607017557876814,0.4608414762946547,3.511184840520493,66.93141999235527,1.184908654098588,0.5487799210357113,781.0,997.0,143.090515625,1,20,125,55
0.4672178941315875,0.30961522150619003,0.48729585494043265,0.3843371133981656,0.6041102725672217,215.95551171832022,0.05926678377042516,0.6997612356334123,601.0,978.0,64.24326171875,1,20,125,55
0.28066500590746013,0.3271213067568015,0.31459203769564426,0.3657527798721403,1.0409950796507004,0.0,0.24490945578590462,1.0553408639344837,375.0,489.0,38.622996093750004,1,20,125,55
0.3540001406914605,0.4148937195341512,0.40212648138790597,0.5278107686787824,0.5760225315760168,0.0,0.12078500761938782,0.6597042213210932,464.0,396.0,12.309490234375,1,20,125,55
0.6400163632587119,0.28192868946327215,0.6975129743507413,0.3168381075663555,0.7446446003243988,0.0,0.6921355450014806,0.7115258024631639,591.0,615.0,13.304814453125001,1,20,125,55
0.28480320804566833,0.36448418074760963,0.323006270340253,0.45980431906123986,0.7216579539990665,0.0,0.35132617913048225,0.5957669911531441,940.0,1493.0,63.4059609375,1,20,125,55
0.3485519487229547,0.5996447278674162,0.40992203108631925,0.6785242058726402,1.0464144321903783,0.0,2.679478150532071,0.5393198439577619,758.0,606.0,10.722689453125,1,20,125,55
0.2965158269128982,0.18187965733319175,0.3112444304132073,0.2206464156055569,0.9545299654280469,553.7273482700625,0.09472211990536161,0.6466333872774179,604.0,666.0,102.394859375,1,20,125,55
0.15220046267233367,0.29529096395957555,0.171808721703301,0.3732048491344233,0.9708663504960222,0.0,1.930144422996711,0.7830609626807418,591.0,583.0,33.79327734375,1,20,125,55
0.2874920880510161,0.31645908841186277,0.3692781290377801,0.36903849152646445,3.0228056384991513,0.0,1.3168834210515952,0.7918745187079808,1141.0,1790.0,28.485673828125,1,20,125,55
0.3099543967072132,0.2949096054620114,0.3349530234853427,0.3402568028014677,2.576024697944293,28.516027659741233,0.1887058410660014,0.5437406059730328,608.0,942.0,24.62499609375,1,20,125,55
0.2346063582330545,0.35732960563971755,0.23869965249552877,0.45669624675330955,2.380126434293966,16.680475454486785,0.2463049631585733,0.9285785325393915,470.0,700.0,28.07907421875,1,20,125,55
0.3159101014571895,0.42945888462481535,0.31787138444396784,0.5239991264783118,10.0,0.0,1.908379579777738,0.8622152428963444,476.0,460.0,16.62626171875,1,20,125,55
0.21218687213675255,0.27024946279522744,0.2297626316298667,0.32319474157720113,0.9971044755990566,0.0,1.0387320270961578,0.8056530629725883,1106.0,1801.0,114.4433515625,1,20,125,55
0.35425010666236956,0.23002867825601503,0.4440456482160813,0.29791581858227784,0.697215186749311,0.0,2.330427767872732,0.684088090204668,895.0,1086.0,25.548353515625,1,20,125,55
0.22321156128301234,0.4306631074139082,0.2262907107020517,0.5248527114445893,10.0,0.0,1.0543409298192268,2.820395697654423,486.0,599.0,25.347603515625,1,20,125,55
0.24733422618610132,0.2932449822658546,0.25773343825052963,0.41234388297654,2.9596004804711638,36.9909670966027,3.060388924930726,0.710832698417771,338.0,562.0,90.42396875,1,20,125,55
0.3730926210171889,0.34242053428901104,0.438695494516846,0.39182727218830976,3.9518016264739786,14.121414830453602,1.9989850524853712,0.9714779311737102,754.0,1276.0,12.388802734375,1,20,125,55
0.315201719546734,0.4104799668039281,0.3513432605219448,0.46313137554478784,10.0,0.0,2.617561347160244,1.2218602209356364,670.0,573.0,11.20652734375,1,20,125,55
0.4308943892856635,0.29941516105104093,0.48723333228091037,0.3368210254228964,10.0,0.0,0.6505481453751489,0.6353506051475903,615.0,732.0,25.244273437500002,1,20,125,55
0.21481472821026562,0.2692614170341654,0.22623180147872482,0.3700518362575704,3.380926536199042,0.0,1.60116596360047,1.0880216111003753,562.0,630.0,8.365109375,1,20,125,55
0.2697061493309432,0.26088654932797484,0.309104253132443,0.3262474614527907,3.5512867577229543,40.11836054497196,0.3917271063842559,0.6029166508270878,476.0,791.0,115.7308984375,1,20,125,55
0.5200783955609746,0.31768411952102676,0.5480865997673959,0.4185752071225891,1.1245248434659225,0.0,1.519176849135491,0.6845043556594028,317.0,397.0,12.256833984375,1,20,125,55
0.36163332940400966,0.3033797667739631,0.4255129797844156,0.43447026037130976,2.2915688181081206,5.910845414255463,0.8177428312921343,1.4867969416363003,375.0,761.0,14.5635087890625,1,20,125,55
0.4193523356650407,0.3725580147201961,0.5067165040844492,0.46370288899704387,1.4840293158394948,0.0,1.1741452669504069,0.9982632918044296,620.0,889.0,9.079568359375001,1,20,125,55
0.09952521851364501,0.2935283214680263,0.10646448432578104,0.36713088534764216,2.0470080387184137,0.0,1.353190749990572,1.675403449591551,448.0,677.0,11.958710937500001,1,20,125,55
0.5612576123187135,0.5007026143755499,0.5612586926665404,0.5700801287850839,10.0,0.0,0.1988877118251402,1.2498026245863372,417.0,264.0,11.590107421875,1,20,125,55
0.5027858939456199,0.22566696139700448,0.5151157992300323,0.30902629834474593,1.901236752838205,56.717259460892734,1.1820472905765016,0.716536563887863,683.0,830.0,64.19812890625,1,20,125,55
0.4345407417475616,0.4005280906052483,0.4696410078735131,0.45539844058359646,0.8998264217367575,0.0,0.5522772372537164,0.9634126943740591,811.0,802.0,27.675583984375,1,20,125,55
0.28519187568949567,0.19312132996167003,0.2996402407881698,0.24305602479655875,10.0,0.0,0.8432159604081784,1.2265221843545457,680.0,925.0,16.968291015625,1,20,125,55
0.27911671015642625,0.13220280114208932,0.3106320380707382,0.22340729844908272,3.155283500869689,11.211093332013919,0.06147990839288697,0.7724115984191654,974.0,893.0,87.5071015625,1,20,125,55
0.2746576803733622,0.23789173918608425,0.37463413151084873,0.28759895119768153,2.566651347541815,5.360830443162029,0.7573280817043051,1.8579316900721454,447.0,709.0,9.1764814453125,1,20,125,55
0.17824542316906017,0.31683372067977317,0.18790646047550785,0.4110872355908926,0.6451521961406143,0.0,0.042487977964289936,2.6905197640704883,637.0,721.0,28.081638671875,1,20,125,55
0.48674499679407973,0.3564644085045758,0.5283998292863291,0.4390542341901837,0.7689349794661245,6.720880564539658,1.171377855557619,0.8958772910358466,997.0,1125.0,12.0854462890625,1,20,125,55
0.2895959913994183,0.35283732139363955,0.3385372364194281,0.4362374955982127,1.765417495196969,0.0,0.09247913169703903,0.6517588349039161,522.0,411.0,23.26413671875,1,20,125,55
0.19688647107037097,0.41322576956207036,0.20450381782242769,0.5034128102606175,1.6046510474910376,0.0,0.05145595149881976,1.2115633903583571,476.0,417.0,9.731650390625001,1,20,125,55
0.33193136498394027,0.20313243863650923,0.3674081868376631,0.25434080327054565,3.24431303909925,31.307902081302956,0.14052785677982538,1.6140134983742431,487.0,712.0,18.87980859375,1,20,125,55
0.4346933776747914,0.32742077429868316,0.5031547842625947,0.35146517031568747,1.2084958428152086,91.27465337293586,1.5437619303710854,0.6187557920377096,454.0,919.0,14.5959541015625,1,20,125,55
0.44151438733211484,0.35908006215536076,0.5033670918475837,0.4085375531071188,0.8713361120416019,0.0,0.5122284862303264,0.7290741225176955,1243.0,2293.0,97.021890625,1,20,125,55
0.32643572350607064,0.2816652576610891,0.39137615779702567,0.32415061256493183,1.5987776695100053,17.94176385242198,2.226474959591642,1.2221643402482243,1110.0,1922.0,20.5106484375,1,20,125,55
0.4734129486110637,0.33594989953370386,0.5179724688769854,0.41312867276602994,10.0,0.0,0.3251075816401765,1.1089335773021964,777.0,1362.0,43.0233359375,1,20,125,55
0.14766845820979366,0.2571718940054746,0.1527565157401476,0.3555840284411064,1.4203922920678012,55.03254202476857,0.9999179076054434,0.8291139287595553,452.0,648.0,10.4802919921875,1,20,125,55
0.4726973218087223,0.18248077765027124,0.487192618098026,0.2619080737826503,1.0700821951601944,0.0,1.1354302769323654,1.115934024607182,477.0,670.0,19.584988281250002,1,20,125,55
0.47666984144257557,0.2718123940969578,0.5213330222714572,0.3135144943655118,1.928738191613316,43.39758303350889,1.5140033953681398,0.6972002030590302,676.0,863.0,102.515625,1,20,125,55
0.2128032936509909,0.32608058580802846,0.21464426729216854,0.4316583458963786,1.2399151467585445,79.58904601387562,0.1492460175454584,0.579751923629698,546.0,668.0,127.77975781250001,1,20,125,55
0.14459713689661996,0.4700599562460209,0.14643902161665012,0.5355206640562484,10.0,0.0,1.0659212646726286,1.9964015348625026,483.0,820.0,25.953828125,1,20,125,55
0.4264501358166267,0.46798918012604973,0.43303367815413746,0.5657185405444383,10.0,0.0,1.661576791916773,2.1212358777161806,466.0,922.0,32.2115625,1,20,125,55
0.4601304163572539,0.38533596381443874,0.46099841384622775,0.4832294602550715,10.0,0.0,0.3995498341068302,3.1385323646872476,695.0,686.0,40.5700234375,1,20,125,55
0.4202085186799685,0.29752063395631795,0.45416181016001195,0.34801641559316165,1.6353439071908342,6.051934761034947,0.06449120516709206,1.0679542582464294,826.0,1798.0,68.4510234375,1,20,125,55
0.3126392436858085,0.4059547801443378,0.32594278460475556,0.4696605893045392,2.9691920964154286,0.0,2.589947789090031,1.5546921498548625,1079.0,1161.0,14.585740234375,1,20,125,55
0.3351879222511502,0.34660324700287587,0.36878603128614085,0.41392036047753317,1.5163192228504805,0.0,0.6161019819615998,1.0169605569457838,651.0,1041.0,95.8578046875,1,20,125,55
0.14781246347885027,0.3813570650187308,0.14985083944424554,0.5443096180999251,2.565723219887886,0.0,0.28265576577997464,1.372102406024391,474.0,853.0,10.8096494140625,1,20,125,55
0.28708431897646314,0.20820523611711145,0.3424849826271276,0.2835454966124553,1.2244233785239507,0.0,0.4198584502599383,1.372768960903047,700.0,835.0,36.659171875,1,20,125,55
0.38368840616791533,0.4399925133001367,0.501648999844592,0.5084339623405988,2.7011260116448255,27.537931910065424,0.2339030351045408,0.8419728463383802,775.0,983.0,9.9916904296875,1,20,125,55
0.47205475961518734,0.29841099861017956,0.5381394175076065,0.3661946803148438,2.9931372257535145,0.0,0.09968275008814587,0.5326688815333179,1311.0,2031.0,149.311765625,1,20,125,55
0.49938054393858977,0.4060131510430044,0.56073812367345,0.4847579049949166,10.0,0.0,2.4681438000898455,0.8050529507990212,1260.0,1448.0,91.4899609375,1,20,125,55
0.05233841372436032,0.3232384183101887,0.05630429483990688,0.3803480349776852,0.5035615445622668,5.87657739245146,1.2447855147341444,0.7527892078262282,320.0,648.0,27.62363671875,1,20,125,55
0.2961890517373964,0.3640583856974297,0.37238298077777593,0.4213025064122139,3.6556247475532273,8.444511717893988,0.020417228695369438,1.123395466792321,739.0,1042.0,20.85137890625,1,20,125,55
0.3351547294202342,0.3740810452090605,0.38029333368241747,0.43412760480744306,0.8827059490883845,0.0,0.6044627215843912,1.0466538010685604,872.0,1828.0,68.7080703125,1,20,125,55
0.1482636686009758,0.16449834436006483,0.21349996377661115,0.1975578795641828,3.7409384418391824,0.0,2.4930321216772,0.7056376436117203,579.0,511.0,21.790298828125,1,20,125,55
0.3387299972531292,0.28518893809889634,0.4432541471435034,0.36383015646969097,10.0,0.0,0.3415335429716663,0.8454452314692653,569.0,1069.0,35.66391015625,1,20,125,55
0.31081071624053663,0.31326153295340703,0.31585490573569847,0.35639920634535593,10.0,0.0,2.739319055963154,0.7373229499252273,912.0,1347.0,9.589020507812501,1,20,125,55
0.09387557467847227,0.1762089355570994,0.09694427139136287,0.22303634400590652,1.5074569825925905,12.946095855817212,2.61640585083164,1.2879659552610319,579.0,1260.0,8.877205078125,1,20,125,55
0.5089854490412504,0.31538178041831827,0.5298487012663274,0.38658384820881503,3.0775980364574798,143.84426082643841,0.6091751441551987,0.7347153066164064,474.0,869.0,123.41445312500001,1,20,125,55
0.46608230307868925,0.4501021036189527,0.4676147208257899,0.5494477664784978,10.0,0.0,0.44463918735316277,1.8198364529496551,494.0,463.0,13.3986875,1,20,125,55
0.5936911777235385,0.3755571432101633,0.597156549301692,0.4157781141109269,0.7221136147141413,19.34456476240443,0.20826252705322337,0.7355017840020406,653.0,954.0,23.382546875,1,20,125,55
0.2012573387747829,0.2632851100621872,0.20444950647807905,0.33465771934838734,2.0473819460208755,35.53738222206745,1.1581753902049365,0.8655638933271119,745.0,1292.0,12.4321474609375,1,20,125,55
0.30039067839697375,0.28810217982755537,0.3142656470298987,0.36164954170530933,10.0,0.0,1.6078696554311986,1.635740666854236,774.0,997.0,3.8833610839843753,1,20,125,55
0.453425395320416,0.33127268610290866,0.45393743143445087,0.3736324548561976,10.0,0.0,0.7805760341226377,1.6935366701342498,699.0,893.0,17.963185546875,1,20,125,55
0.5019938270274555,0.3284029836027545,0.5446990410931748,0.3793245906935419,0.6114587226597114,0.0,0.7030121389432655,0.5077614661431261,997.0,1758.0,40.608546875,1,20,125,55
0.4005049067630658,0.37186979371622286,0.459133617104557,0.4300663183529354,10.0,0.0,2.2231009684716057,0.6913392280173606,661.0,609.0,114.1798046875,1,20,125,55
0.49542261421494455,0.27937699402057764,0.5304377466069571,0.33915839479331145,0.6980227627027635,0.0,0.5977575586439756,0.6750924183578801,1665.0,2722.0,106.5438046875,1,20,125,55
0.35563975028197514,0.3081913618158587,0.43465935679952833,0.3607026694037718,3.080983377134585,31.589620943017252,1.1286501242147076,0.8083891151974331,635.0,897.0,26.766103515625,1,20,125,55
